データ分析入門 - 2 データの種類と表現方法
…
データフレームではデータを横に見たものが行、縦に見たものを列と考えます。 上記のデータフレームは4行3列のデータフレームといえます。

データ分析の作業においては、データの変数を比較し、関係を調べることが頻繁に行われます。 この時にデータフレームとしてデータを扱えると便利です。

次に示すのは南極大陸に生育するペンギンの大きさを調べた観測データです。 ここからはこのデータフレームを題材にして説明を行います。 それぞれの変数は次の意味をもちます（詳細は付録のデータセットを参照してください）。

species: ペンギンの種類（種名）

bill_length_mm: 口ばしの長さ。単位はミリメートル

body_mass_g: 体重。単位はグラム

# A tibble: 344 × 3
   species bill_length_mm body_mass_g
   <fct>            <dbl>       <int>
 1 Adelie            39.1        3750
 2 Adelie            39.5        3800
 3 Adelie            40.3        3250
 4 Adelie            NA            NA
 5 Adelie            36.7        3450
 6 Adelie            39.3        3650
 7 Adelie            38.9        3625
 8 Adelie            39.2        4675
 9 Adelie            34.1        3475
10 Adelie            42          4250
# … with 334 more rows
…
